IN2039 Data Visualization - Tipos de Variables
…
select()

Selecciona las columnas species, body_mass_g y sex.

penguins_data %>% select(species, body_mass_g, sex)

# A tibble: 344 × 3
   species body_mass_g sex   
   <chr>         <dbl> <chr> 
 1 Adelie         3750 male  
 2 Adelie         3800 female
 3 Adelie         3250 female
 4 Adelie           NA <NA>  
 5 Adelie         3450 female
 6 Adelie         3650 male  
 7 Adelie         3625 female
 8 Adelie         4675 male  
 9 Adelie         3475 NA    
10 Adelie         4250 NA    
# ℹ 334 more rows
…
